code/oscpu-v1/examples/counter/build/vlt_dump.vcd
$version Generated by VerilatedVcd $end
$date Sat Aug 14 22:12:23 2021 $end
$timescale 1ps $end

 $scope module TOP $end
  $var wire  1 # clk $end
  $var wire  4 % out [3:0] $end
  $var wire  1 $ reset $end
  $scope module top $end
   $var wire  1 # clk $end
   $var wire  4 % out [3:0] $end
   $var wire  1 $ reset $end
  $upscope $end
 $upscope $end
$enddefinitions $end


#0
0#
0$
b0000 %
#1
1#
b0001 %
#2
0#
#3
1#
b0010 %
#4
0#
#5
1#
b0011 %
#6
0#
#7
1#
b0100 %
#8
0#
#9
1#
b0101 %
#10
0#
#11
1#
b0110 %
#12
0#
#13
1#
b0111 %
#14
0#
#15
1#
b1000 %
#16
0#
#17
1#
b1001 %
#18
0#
#19
1#
b1010 %
#20
0#
#21
1#
b1011 %
#22
0#
#23
1#
b1100 %
#24
0#
#25
1#
b1101 %
#26
0#
#27
1#
b1110 %
#28
0#
#29
1#
b1111 %
#30
0#
#31
1#
b0000 %
#32
0#
#33
1#
b0001 %
#34
0#
#35
1#
b0010 %
#36
0#
#37
1#
b0011 %
#38
0#
#39
1#
b0100 %
