code/learn/verilog_examples/03_counter/counter/build/counter4_3_wave.vcd
$date
	Wed Aug 04 08:53:02 2021
$end
$version
	Icarus Verilog
$end
$timescale
	1ns
$end
$scope module counter4_3_tb $end
$var wire 4 ! q [3:0] $end
$var wire 1 " co $end
$var reg 1 # clk $end
$var reg 4 $ d [3:0] $end
$var reg 1 % en $end
$var reg 1 & r $end
$var reg 1 ' s $end
$scope module uc4 $end
$var wire 1 # clk $end
$var wire 4 ( d [3:0] $end
$var wire 1 % en $end
$var wire 1 & r $end
$var wire 1 ' s $end
$var reg 1 " co $end
$var reg 4 ) q [3:0] $end
$upscope $end
$upscope $end
$enddefinitions $end
#0
$dumpvars
bx )
b1010 (
0'
0&
0%
b1010 $
0#
x"
bx !
$end
#10
1#
#20
0#
1%
#30
0"
1#
#40
0#
1&
#50
b0 !
b0 )
1#
#60
0#
1'
#70
1#
#80
0#
0&
#90
b1010 !
b1010 )
1#
#100
0#
0'
#110
b1011 !
b1011 )
1#
#120
0#
#130
b1100 !
b1100 )
1#
#140
0#
#150
b1101 !
b1101 )
1#
#160
0#
#170
b1110 !
b1110 )
1#
#180
0#
#190
b1111 !
b1111 )
1#
#200
0#
#210
1"
b0 !
b0 )
1#
#220
0#
#230
0"
b1 !
b1 )
1#
#240
0#
#250
b10 !
b10 )
1#
#260
0#
#270
b11 !
b11 )
1#
#280
0#
#290
b100 !
b100 )
1#
#300
0#
#310
b101 !
b101 )
1#
#320
0#
#330
b110 !
b110 )
1#
#340
0#
#350
b111 !
b111 )
1#
#360
0#
#370
b1000 !
b1000 )
1#
#380
0#
#390
b1001 !
b1001 )
1#
#400
0#
#410
b1010 !
b1010 )
1#
#420
0#
#430
b1011 !
b1011 )
1#
#440
0#
#450
b1100 !
b1100 )
1#
#460
0#
#470
b1101 !
b1101 )
1#
#480
0#
#490
b1110 !
b1110 )
1#
#500
0#
#510
b1111 !
b1111 )
1#
#520
0#
#530
1"
b0 !
b0 )
1#
#540
0#
#550
0"
b1 !
b1 )
1#
#560
0#
#570
b10 !
b10 )
1#
#580
0#
#590
b11 !
b11 )
1#
#600
0#
#610
b100 !
b100 )
1#
#620
0#
#630
b101 !
b101 )
1#
#640
0#
#650
b110 !
b110 )
1#
#660
0#
#670
b111 !
b111 )
1#
#680
0#
#690
b1000 !
b1000 )
1#
#700
0#
#710
b1001 !
b1001 )
1#
#720
0#
#730
b1010 !
b1010 )
1#
#740
0#
#750
b1011 !
b1011 )
1#
#760
0#
#770
b1100 !
b1100 )
1#
#780
0#
#790
b1101 !
b1101 )
1#
#800
0#
#810
b1110 !
b1110 )
1#
#820
0#
#830
b1111 !
b1111 )
1#
#840
0#
#850
1"
b0 !
b0 )
1#
#860
0#
#870
0"
b1 !
b1 )
1#
#880
0#
#890
b10 !
b10 )
1#
